{
  "estafeta": {
    "apikey": "string",
    "applicationId": "string",
    "customerNumber": "string",
    "name": "string",
    "outputType": "string",
    "printingTemplate": "string",
    "sharedSecret": "string",
    "subscriberId": "string",
    "version": "string"
  },
  "id": "string",
  "Image": "string",
  "name": "string",
  "sap": {
    "distributionChannel": "string",
    "division": "string",
    "pricelist": "string",
    "salesOrganization": "string",
    "scheduleline": "string",
    "shippingType": "string"
  },
  "shopify": {
    "accessToken": "string",
    "apiVersion": "string",
    "endpoint": "string",
    "hashSign": "string",
    "jobOrderRecurringMinutes": 0,
    "secretKey": "string"
  },
  "WhatsApp": {
    "accountId": "string",
    "defaultDelivery": "string",
    "orderCreatedTemplateName": "string",
    "orderFulfilledTemplateName": "string",
    "permanentToken": "string"
  }
}
